{
  "content": {
    "popupId": "",

    "items": [],

    "media": "image",

    "bgImageWidth": 0,
    "bgImageHeight": 0,
    "bgImageSrc": "",
    "bgPositionY": 50,
    "bgPositionX": 50,
    "bgPopulation": "",

    "brightness": 100,
    "hue": 0,
    "saturation": 100,
    "contrast": 100,

    "hoverMedia": "image",

    "hoverBgImageWidth": null,
    "hoverBgImageHeight": null,
    "hoverBgImageSrc": null,
    "hoverBgPositionY": null,
    "hoverBgPositionX": null,
    "hoverBgPopulation": null,

    "hoverBrightness": null,
    "hoverHue": null,
    "hoverSaturation": null,
    "hoverContrast": null,

    "tabletMedia": "image",

    "tabletBgImageWidth": null,
    "tabletBgImageHeight": null,
    "tabletBgImageSrc": null,
    "tabletBgPositionX": null,
    "tabletBgPositionY": null,
    "tabletBgPopulation": null,

    "tabletBrightness": null,
    "tabletHue": null,
    "tabletSaturation": null,
    "tabletContrast": null,

    "mobileMedia": "image",

    "mobileBgImageWidth": null,
    "mobileBgImageHeight": null,
    "mobileBgImageSrc": null,
    "mobileBgPositionX": null,
    "mobileBgPositionY": null,
    "mobileBgPopulation": null,

    "mobileBrightness": null,
    "mobileHue": null,
    "mobileSaturation": null,
    "mobileContrast": null
  },

  "toolbar": {
    "tabsMedia": "",
    "tabsState": "",
    "tabsColor": "",

    "tabletTabsMedia": null,
    "tabletTabsState": null,
    "tabletTabsColor": null,

    "mobileTabsMedia": null,
    "mobileTabsState": null,
    "mobileTabsColor": null
  },

  "style": {
    "className": "",

    "borderWidthType": "grouped",
    "borderWidth": 0,
    "borderTopWidth": 0,
    "borderRightWidth": 0,
    "borderBottomWidth": 0,
    "borderLeftWidth": 0,

    "tempBorderWidth": 8,
    "tempBorderTopWidth": 8,
    "tempBorderRightWidth": 8,
    "tempBorderBottomWidth": 8,
    "tempBorderLeftWidth": 8,

    "borderRadiusType": "grouped",
    "borderRadius": 0,
    "borderTopLeftRadius": 0,
    "borderTopRightRadius": 0,
    "borderBottomRightRadius": 0,
    "borderBottomLeftRadius": 0,

    "tempBorderRadius": 0,
    "tempBorderTopLeftRadius": 0,
    "tempBorderTopRightRadius": 0,
    "tempBorderBottomRightRadius": 0,
    "tempBorderBottomLeftRadius": 0,

    "bgColorType": "solid",
    "tempBgColorType": "solid",

    "gradientActivePointer": "startPointer",
    "gradientStartPointer": 0,
    "gradientFinishPointer": 100,

    "gradientType": "linear",

    "gradientLinearDegree": 90,
    "gradientRadialDegree": 90,

    "bgColorHex": "#000000",
    "bgColorOpacity": 0,
    "bgColorPalette": "",

    "tempBgColorOpacity": 1,
    "tempBgColorPalette": "",

    "gradientColorHex": "#009900",
    "gradientColorOpacity": 1,
    "gradientColorPalette": "",

    "tempGradientColorOpacity": 1,
    "tempGradientColorPalette": "",

    "colorHex": "#ffffff",
    "colorOpacity": 1,
    "colorPalette": "",

    "tempColorOpacity": 1,
    "tempColorPalette": "color3",

    "borderColorHex": "#66738d",
    "borderColorOpacity": 0,
    "borderColorPalette": "",

    "tempBorderColorOpacity": 1,
    "tempBorderColorPalette": "",

    "containerClassName": "",
    "containerSize": 100,

    "customCSS": "",

    "hoverBgColorType": null,
    "tempHoverBgColorType": null,

    "hoverGradientActivePointer": null,
    "hoverGradientStartPointer": null,
    "hoverGradientFinishPointer": null,

    "hoverGradientType": null,

    "hoverGradientLinearDegree": null,
    "hoverGradientRadialDegree": null,

    "hoverBgColorHex": null,
    "hoverBgColorOpacity": null,
    "hoverBgColorPalette": null,

    "tempHoverBgColorOpacity": null,
    "tempHoverBgColorPalette": null,

    "hoverGradientColorHex": null,
    "hoverGradientColorOpacity": null,
    "hoverGradientColorPalette": null,

    "tempHoverGradientColorOpacity": null,
    "tempHoverGradientColorPalette": null,

    "hoverColorHex": "#239ddb",
    "hoverColorOpacity": 0.8,
    "hoverColorPalette": "color3",

    "tempHoverColorOpacity": 1,
    "tempHoverColorPalette": "color3",

    "tabletContainerType": null,
    "tabletContainerSize": null,

    "tabletBorderRadius": null,
    "tabletBorderTopLeftRadius": null,
    "tabletBorderTopRightRadius": null,
    "tabletBorderBottomLeftRadius": null,
    "tabletBorderBottomRightRadius": null,

    "tempTabletBorderTopLeftRadius": null,
    "tempTabletBorderTopRightRadius": null,
    "tempTabletBorderBottomLeftRadius": null,
    "tempTabletBorderBottomRightRadius": null,

    "tabletBgColorType": null,

    "tabletGradientStartPointer": null,
    "tabletGradientFinishPointer": null,
    "tabletGradientActivePointer": null,

    "tabletGradientType": null,

    "tabletGradientLinearDegree": null,
    "tabletGradientRadialDegree": null,

    "tabletBgColorHex": null,
    "tabletBgColorOpacity": null,
    "tabletBgColorPalette": null,

    "tempTabletBgColorOpacity": null,
    "tempTabletBgColorPalette": null,

    "tabletGradientColorHex": null,
    "tabletGradientColorOpacity": null,
    "tabletGradientColorPalette": null,

    "tempTabletGradientColorOpacity": null,
    "tempTabletGradientColorPalette": null,

    "mobileContainerType": null,
    "mobileContainerSize": null,

    "mobileBgColorType": null,

    "mobileGradientStartPointer": null,
    "mobileGradientFinishPointer": null,
    "mobileGradientActivePointer": null,

    "mobileGradientType": null,

    "mobileGradientLinearDegree": null,
    "mobileGradientRadialDegree": null,

    "mobileBgColorHex": null,
    "mobileBgColorOpacity": null,
    "mobileBgColorPalette": null,

    "tempMobileBgColorOpacity": null,
    "tempMobileBgColorPalette": null,

    "mobileGradientColorHex": null,
    "mobileGradientColorOpacity": null,
    "mobileGradientColorPalette": null,

    "tempMobileGradientColorOpacity": null,
    "tempMobileGradientColorPalette": null,

    "mobileBorderRadius": null,
    "mobileBorderTopLeftRadius": null,
    "mobileBorderTopRightRadius": null,
    "mobileBorderBottomLeftRadius": null,
    "mobileBorderBottomRightRadius": null,

    "tempMobileBorderTopLeftRadius": null,
    "tempMobileBorderTopRightRadius": null,
    "tempMobileBorderBottomLeftRadius": null,
    "tempMobileBorderBottomRightRadius": null
  }
}
