{
  "content": {
    "items": [],

    "anchorName": "",
    "fullHeight": "off",

    "slider": "off",
    "hoverSlider": null,

    "showOnDesktop": "on",

    "zIndex": 0,

    "tabletAnchorName": null,
    "tabletFullHeight": null,

    "tabletSlider": null,

    "showOnTablet": "on",

    "mobileAnchorName": null,
    "mobileFullHeight": null,

    "mobileSlider": null,

    "showOnMobile": "on"
  },

  "animation": {
    "sliderAnimation": "none",
    "sliderAutoPlay": "off",
    "sliderAutoPlaySpeed": 3,

    "tabletSliderAutoPlay": null,
    "tabletSliderAutoPlaySpeed": null,

    "mobileSliderAutoPlay": null,
    "mobileSliderAutoPlaySpeed": null
  },

  "toolbar": {
    "tabsColor": ""
  },

  "style": {
    "className": "",

    "customClassName": "",

    "sliderDots": "circle",

    "sliderDotsColorHex": "#000000",
    "sliderDotsColorOpacity": 1,
    "sliderDotsColorPalette": "",

    "tempSliderDotsColorOpacity": 1,
    "tempSliderDotsColorPalette": "",

    "hoverSliderDotsColorHex": "#000000",
    "hoverSliderDotsColorOpacity": 1,
    "hoverSliderDotsColorPalette": "",

    "tempHoverSliderDotsColorOpacity": 1,
    "tempHoverSliderDotsColorPalette": "",

    "sliderArrows": "thin",

    "sliderArrowsColorHex": "#000000",
    "sliderArrowsColorOpacity": 0.7,
    "sliderArrowsColorPalette": "",

    "tempSliderArrowsColorOpacity": 1,
    "tempSliderArrowsColorPalette": "",

    "hoverSliderArrowsColorHex": "#000000",
    "hoverSliderArrowsColorOpacity": 1,
    "hoverSliderArrowsColorPalette": "",

    "tempHoverSliderArrowsColorOpacity": 1,
    "tempHoverSliderArrowsColorPalette": "",

    "tabletSliderDots": null,
    "tabletSliderArrows": null,

    "tabletSliderDotsColorHex": null,
    "tabletSliderDotsColorOpacity": null,
    "tabletSliderDotsColorPalette": null,

    "tempTabletSliderDotsColorOpacity": null,
    "tempTabletSliderDotsColorPalette": null,

    "mobileSliderDots": null,
    "mobileSliderArrows": null,

    "mobileSliderDotsColorHex": null,
    "mobileSliderDotsColorOpacity": null,
    "mobileSliderDotsColorPalette": null,

    "tempMobileSliderDotsColorOpacity": null,
    "tempMobileSliderDotsColorPalette": null
  }
}
