{
  "content": {
    "items": [],

    "media": "image",

    "bgImageWidth": 0,
    "bgImageHeight": 0,
    "bgImageSrc": "",
    "bgPositionY": 50,
    "bgPositionX": 50,
    "bgPopulation": "",

    "brightness": 100,
    "hue": 0,
    "saturation": 100,
    "contrast": 100,

    "hoverMedia": "image",

    "hoverBgImageWidth": null,
    "hoverBgImageHeight": null,
    "hoverBgImageSrc": null,
    "hoverBgPositionY": null,
    "hoverBgPositionX": null,
    "hoverBgPopulation": null,

    "hoverBrightness": null,
    "hoverHue": null,
    "hoverSaturation": null,
    "hoverContrast": null,

    "tabletMedia": null,

    "tabletBgImageWidth": null,
    "tabletBgImageHeight": null,
    "tabletBgImageSrc": null,
    "tabletBgPositionX": null,
    "tabletBgPositionY": null,
    "tabletBgPopulation": null,

    "tabletBrightness": null,
    "tabletHue": null,
    "tabletSaturation": null,
    "tabletContrast": null,

    "mobileMedia": null,

    "mobileBgImageWidth": null,
    "mobileBgImageHeight": null,
    "mobileBgImageSrc": null,
    "mobileBgPositionX": null,
    "mobileBgPositionY": null,
    "mobileBgPopulation": null,

    "mobileBrightness": null,
    "mobileHue": null,
    "mobileSaturation": null,
    "mobileContrast": null
  },

  "toolbar": {
    "tabsState": "",
    "tabsCurrentElement": "",
    "tabsColor": ""
  },

  "style": {
    "className": "",

    "borderStyle": "",

    "tempBorderStyle": "solid",

    "hoverBorderStyle": null,

    "tempHoverBorderStyle": null,

    "borderWidthType": "grouped",
    "borderWidth": 0,
    "borderTopWidth": 0,
    "borderRightWidth": 0,
    "borderBottomWidth": 0,
    "borderLeftWidth": 0,

    "tempBorderWidth": 8,
    "tempBorderTopWidth": 8,
    "tempBorderRightWidth": 8,
    "tempBorderBottomWidth": 8,
    "tempBorderLeftWidth": 8,

    "hoverBorderWidthType": null,
    "hoverBorderWidth": null,
    "hoverBorderTopWidth": null,
    "hoverBorderRightWidth": null,
    "hoverBorderBottomWidth": null,
    "hoverBorderLeftWidth": null,

    "tempHoverBorderWidth": null,
    "tempHoverBorderTopWidth": null,
    "tempHoverBorderRightWidth": null,
    "tempHoverBorderBottomWidth": null,
    "tempHoverBorderLeftWidth": null,

    "borderRadiusType": "grouped",
    "borderRadius": 0,
    "borderTopLeftRadius": 0,
    "borderTopRightRadius": 0,
    "borderBottomRightRadius": 0,
    "borderBottomLeftRadius": 0,

    "tempBorderRadius": 0,
    "tempBorderTopLeftRadius": 0,
    "tempBorderTopRightRadius": 0,
    "tempBorderBottomRightRadius": 0,
    "tempBorderBottomLeftRadius": 0,

    "hoverBorderRadiusType": null,
    "hoverBorderRadius": null,
    "hoverBorderTopLeftRadius": null,
    "hoverBorderTopRightRadius": null,
    "hoverBorderBottomRightRadius": null,
    "hoverBorderBottomLeftRadius": null,

    "tempHoverBorderRadius": null,
    "tempHoverBorderTopLeftRadius": null,
    "tempHoverBorderTopRightRadius": null,
    "tempHoverBorderBottomRightRadius": null,
    "tempHoverBorderBottomLeftRadius": null,

    "bgColorType": "solid",

    "gradientActivePointer": "startPointer",
    "gradientStartPointer": 0,
    "gradientFinishPointer": 100,

    "gradientType": "linear",

    "gradientLinearDegree": 90,
    "gradientRadialDegree": 90,

    "hoverBgColorType": null,

    "hoverGradientActivePointer": null,
    "hoverGradientStartPointer": null,
    "hoverGradientFinishPointer": null,

    "hoverGradientType": null,

    "hoverGradientLinearDegree": null,
    "hoverGradientRadialDegree": null,

    "bgColorHex": "#000000",
    "bgColorOpacity": 0,
    "bgColorPalette": "",

    "tempBgColorOpacity": 1,
    "tempBgColorPalette": "",

    "hoverBgColorHex": null,
    "hoverBgColorOpacity": null,
    "hoverBgColorPalette": null,

    "tempHoverBgColorOpacity": null,
    "tempHoverBgColorPalette": null,

    "gradientColorHex": "#009900",
    "gradientColorOpacity": 1,
    "gradientColorPalette": "",

    "tempGradientColorOpacity": 1,
    "tempGradientColorPalette": "",

    "hoverGradientColorHex": null,
    "hoverGradientColorOpacity": null,
    "hoverGradientColorPalette": null,

    "tempHoverGradientColorOpacity": null,
    "tempHoverGradientColorPalette": null,

    "borderColorHex": "#66738d",
    "borderColorOpacity": 0,
    "borderColorPalette": "",

    "tempBorderColorOpacity": 1,
    "tempBorderColorPalette": "",

    "hoverBorderColorHex": null,
    "hoverBorderColorOpacity": null,
    "hoverBorderColorPalette": null,

    "tempHoverBorderColorOpacity": null,
    "tempHoverBorderColorPalette": null,

    "hoverTransition": 50,

    "containerType": "boxed",
    "containerSize": 100,

    "paddingType": "ungrouped",
    "tempPaddingType": "ungrouped",

    "padding": 75,
    "paddingTop": 75,
    "paddingRight": 0,
    "paddingBottom": 75,
    "paddingLeft": 0,

    "tempPadding": 75,
    "tempPaddingTop": 75,
    "tempPaddingRight": 0,
    "tempPaddingBottom": 75,
    "tempPaddingLeft": 0,

    "paddingSuffix": "px",
    "paddingTopSuffix": "px",
    "paddingRightSuffix": "px",
    "paddingBottomSuffix": "px",
    "paddingLeftSuffix": "px",

    "tempPaddingSuffix": "px",
    "tempPaddingTopSuffix": "px",
    "tempPaddingRightSuffix": "px",
    "tempPaddingBottomSuffix": "px",
    "tempPaddingLeftSuffix": "px",

    "hoverPaddingType": null,
    "tempHoverPaddingType": null,

    "hoverPadding": null,
    "hoverPaddingTop": null,
    "hoverPaddingRight": null,
    "hoverPaddingBottom": null,
    "hoverPaddingLeft": null,

    "tempHoverPadding": null,
    "tempHoverPaddingTop": null,
    "tempHoverPaddingRight": null,
    "tempHoverPaddingBottom": null,
    "tempHoverPaddingLeft": null,

    "hoverPaddingSuffix": null,
    "hoverPaddingTopSuffix": null,
    "hoverPaddingRightSuffix": null,
    "hoverPaddingBottomSuffix": null,
    "hoverPaddingLeftSuffix": null,

    "tempHoverPaddingSuffix": null,
    "tempHoverPaddingTopSuffix": null,
    "tempHoverPaddingRightSuffix": null,
    "tempHoverPaddingBottomSuffix": null,
    "tempHoverPaddingLeftSuffix": null,

    "boxShadow": "",

    "tempBoxShadow": "inset",

    "boxShadowColorHex": "#000000",
    "boxShadowColorOpacity": 1,
    "boxShadowColorPalette": "",

    "tempBoxShadowColorOpacity": 1,
    "tempBoxShadowColorPalette": "",

    "boxShadowBlur": 0,
    "boxShadowSpread": 0,
    "boxShadowVertical": 0,
    "boxShadowHorizontal": 0,

    "tempBoxShadowBlur": 4,
    "tempBoxShadowSpread": 0,
    "tempBoxShadowVertical": 2,
    "tempBoxShadowHorizontal": 1,

    "hoverBoxShadow": null,

    "tempHoverBoxShadow": null,

    "hoverBoxShadowColorHex": null,
    "hoverBoxShadowColorOpacity": null,
    "hoverBoxShadowColorPalette": null,

    "tempHoverBoxShadowColorPalette": null,
    "tempHoverBoxShadowColorOpacity": null,

    "hoverBoxShadowBlur": null,
    "hoverBoxShadowVertical": null,
    "hoverBoxShadowSpread": null,
    "hoverBoxShadowHorizontal": null,

    "tempHoverBoxShadowBlur": null,
    "tempHoverBoxShadowVertical": null,
    "tempHoverBoxShadowSpread": null,
    "tempHoverBoxShadowHorizontal": null,

    "shape": "top",

    "shapeTopColorHex": "#000000",
    "shapeTopColorOpacity": 1,
    "shapeTopColorPalette": "",

    "tempShapeTopColorOpacity": 1,
    "tempShapeTopColorPalette": "",

    "shapeBottomColorHex": "#000000",
    "shapeBottomColorOpacity": 1,
    "shapeBottomColorPalette": "",

    "tempShapeBottomColorOpacity": 1,
    "tempShapeBottomColorPalette": "",

    "tempShapeColorOpacity": 1,
    "shapeTopHeight": 100,
    "shapeTopHeightSuffix": "px",
    "shapeBottomHeight": 100,
    "shapeBottomHeightSuffix": "px",
    "shapeTopType": "none",
    "shapeBottomType": "none",
    "shapeTopIndex": "auto",
    "shapeBottomIndex": "auto",
    "shapeTopHorizontal": "off",
    "shapeBottomHorizontal": "off",

    "containerClassName": "",
    "customClassName": "",

    "customCSS": "",

    "tabletContainerType": null,
    "tabletContainerSize": null,

    "tabletBorderStyle": null,

    "tempTabletBorderStyle": null,

    "tabletBorderWidthType": null,
    "tabletBorderWidth": null,
    "tabletBorderTopWidth": null,
    "tabletBorderRightWidth": null,
    "tabletBorderBottomWidth": null,
    "tabletBorderLeftWidth": null,

    "tempTabletBorderWidth": null,
    "tempTabletBorderTopWidth": null,
    "tempTabletBorderRightWidth": null,
    "tempTabletBorderBottomWidth": null,
    "tempTabletBorderLeftWidth": null,

    "tabletBorderRadiusType": null,
    "tabletBorderRadius": null,
    "tabletBorderTopLeftRadius": null,
    "tabletBorderTopRightRadius": null,
    "tabletBorderBottomLeftRadius": null,
    "tabletBorderBottomRightRadius": null,

    "tempTabletBorderRadius": null,
    "tempTabletBorderTopLeftRadius": null,
    "tempTabletBorderTopRightRadius": null,
    "tempTabletBorderBottomLeftRadius": null,
    "tempTabletBorderBottomRightRadius": null,

    "tabletBgColorType": null,

    "tabletGradientStartPointer": null,
    "tabletGradientFinishPointer": null,
    "tabletGradientActivePointer": null,

    "tabletGradientType": null,

    "tabletGradientLinearDegree": null,
    "tabletGradientRadialDegree": null,

    "tabletBgColorHex": null,
    "tabletBgColorOpacity": null,
    "tabletBgColorPalette": null,

    "tempTabletBgColorOpacity": null,
    "tempTabletBgColorPalette": null,

    "tabletGradientColorHex": null,
    "tabletGradientColorOpacity": null,
    "tabletGradientColorPalette": null,

    "tempTabletGradientColorOpacity": null,
    "tempTabletGradientColorPalette": null,

    "tabletBorderColorHex": null,
    "tabletBorderColorOpacity": null,
    "tabletBorderColorPalette": null,

    "tempTabletBorderColorOpacity": null,
    "tempTabletBorderColorPalette": null,

    "tabletPaddingType": "ungrouped",
    "tempTabletPaddingType": "ungrouped",

    "tabletPadding": 50,
    "tabletPaddingTop": 50,
    "tabletPaddingRight": 0,
    "tabletPaddingBottom": 50,
    "tabletPaddingLeft": 0,

    "tempTabletPadding": 50,
    "tempTabletPaddingTop": 50,
    "tempTabletPaddingRight": 0,
    "tempTabletPaddingBottom": 50,
    "tempTabletPaddingLeft": 0,

    "tabletPaddingSuffix": "px",
    "tabletPaddingTopSuffix": "px",
    "tabletPaddingRightSuffix": "px",
    "tabletPaddingBottomSuffix": "px",
    "tabletPaddingLeftSuffix": "px",

    "tempTabletPaddingSuffix": "px",
    "tempTabletPaddingTopSuffix": "px",
    "tempTabletPaddingRightSuffix": "px",
    "tempTabletPaddingBottomSuffix": "px",
    "tempTabletPaddingLeftSuffix": "px",

    "tabletBoxShadow": null,

    "tabletBoxShadowColorHex": null,
    "tabletBoxShadowColorOpacity": null,
    "tabletBoxShadowColorPalette": null,

    "tempTabletBoxShadowColorPalette": null,
    "tempTabletBoxShadowColorOpacity": null,

    "tabletBoxShadowBlur": null,
    "tabletBoxShadowSpread": null,
    "tabletBoxShadowVertical": null,
    "tabletBoxShadowHorizontal": null,

    "tempTabletBoxShadowBlur": null,
    "tempTabletBoxShadowSpread": null,
    "tempTabletBoxShadowVertical": null,
    "tempTabletBoxShadowHorizontal": null,

    "tabletShapeTopType": null,
    "tabletShapeBottomType": null,

    "tabletShapeTopColorHex": null,
    "tabletShapeTopColorOpacity": null,
    "tabletShapeTopColorPalette": null,

    "tempTabletShapeTopColorOpacity": null,
    "tempTabletShapeTopColorPalette": null,

    "tabletShapeBottomColorHex": null,
    "tabletShapeBottomColorOpacity": null,
    "tabletShapeBottomColorPalette": null,

    "tempTabletShapeBottomColorOpacity": null,
    "tempTabletShapeBottomColorPalette": null,

    "tabletShape": null,
    "tabletShapeTopHeight": null,
    "tabletShapeTopHeightSuffix": null,
    "tabletShapeBottomHeight": null,
    "tabletShapeBottomHeightSuffix": null,

    "mobileContainerType": null,
    "mobileContainerSize": null,

    "mobileBgColorType": null,

    "mobileGradientStartPointer": null,
    "mobileGradientFinishPointer": null,
    "mobileGradientActivePointer": null,

    "mobileGradientType": null,

    "mobileGradientLinearDegree": null,
    "mobileGradientRadialDegree": null,

    "mobileBorderStyle": null,

    "tempMobileBorderStyle": null,

    "mobileBorderWidthType": null,
    "mobileBorderWidth": null,
    "mobileBorderTopWidth": null,
    "mobileBorderRightWidth": null,
    "mobileBorderBottomWidth": null,
    "mobileBorderLeftWidth": null,

    "tempMobileBorderWidth": null,
    "tempMobileBorderTopWidth": null,
    "tempMobileBorderRightWidth": null,
    "tempMobileBorderBottomWidth": null,
    "tempMobileBorderLeftWidth": null,

    "mobileBorderRadiusType": null,
    "mobileBorderRadius": null,
    "mobileBorderTopLeftRadius": null,
    "mobileBorderTopRightRadius": null,
    "mobileBorderBottomLeftRadius": null,
    "mobileBorderBottomRightRadius": null,

    "tempMobileBorderRadius": null,
    "tempMobileBorderTopLeftRadius": null,
    "tempMobileBorderTopRightRadius": null,
    "tempMobileBorderBottomLeftRadius": null,
    "tempMobileBorderBottomRightRadius": null,

    "mobileBgColorHex": null,
    "mobileBgColorOpacity": null,
    "mobileBgColorPalette": null,

    "tempMobileBgColorOpacity": null,
    "tempMobileBgColorPalette": null,

    "mobileGradientColorHex": null,
    "mobileGradientColorOpacity": null,
    "mobileGradientColorPalette": null,

    "tempMobileGradientColorOpacity": null,
    "tempMobileGradientColorPalette": null,

    "mobileBorderColorHex": null,
    "mobileBorderColorOpacity": null,
    "mobileBorderColorPalette": null,

    "tempMobileBorderColorOpacity": null,
    "tempMobileBorderColorPalette": null,

    "mobileBoxShadow": null,

    "mobileBoxShadowColorHex": null,
    "mobileBoxShadowColorOpacity": null,
    "mobileBoxShadowColorPalette": null,

    "tempMobileBoxShadowColorPalette": null,
    "tempMobileBoxShadowColorOpacity": null,

    "mobileBoxShadowBlur": null,
    "mobileBoxShadowSpread": null,
    "mobileBoxShadowVertical": null,
    "mobileBoxShadowHorizontal": null,

    "tempMobileBoxShadowBlur": null,
    "tempMobileBoxShadowSpread": null,
    "tempMobileBoxShadowVertical": null,
    "tempMobileBoxShadowHorizontal": null,

    "mobilePaddingType": "ungrouped",
    "tempMobilePaddingType": "ungrouped",

    "mobilePadding": 25,
    "mobilePaddingTop": 25,
    "mobilePaddingRight": 0,
    "mobilePaddingBottom": 25,
    "mobilePaddingLeft": 0,

    "tempMobilePadding": 25,
    "tempMobilePaddingTop": 25,
    "tempMobilePaddingRight": 0,
    "tempMobilePaddingBottom": 25,
    "tempMobilePaddingLeft": 0,

    "mobilePaddingSuffix": "px",
    "mobilePaddingTopSuffix": "px",
    "mobilePaddingRightSuffix": "px",
    "mobilePaddingBottomSuffix": "px",
    "mobilePaddingLeftSuffix": "px",

    "tempMobilePaddingSuffix": "px",
    "tempMobilePaddingTopSuffix": "px",
    "tempMobilePaddingRightSuffix": "px",
    "tempMobilePaddingBottomSuffix": "px",
    "tempMobilePaddingLeftSuffix": "px",

    "mobileShapeTopType": null,
    "mobileShapeBottomType": null,

    "mobileShapeTopColorHex": null,
    "mobileShapeTopColorOpacity": null,
    "mobileShapeTopColorPalette": null,

    "tempMobileShapeTopColorOpacity": null,
    "tempMobileShapeTopColorPalette": null,

    "mobileShapeBottomColorHex": null,
    "mobileShapeBottomColorOpacity": null,
    "mobileShapeBottomColorPalette": null,

    "tempMobileShapeBottomColorOpacity": null,
    "tempMobileShapeBottomColorPalette": null,

    "mobileShape": null,
    "mobileShapeTopHeight": null,
    "mobileShapeTopHeightSuffix": null,
    "mobileShapeBottomHeight": null,
    "mobileShapeBottomHeightSuffix": null
  }
}
